<?xml version="1.0" encoding="UTF-8"?>
<!DOCTYPE svg PUBLIC "-//W3C//DTD SVG 1.1//EN" "http://www.w3.org/Graphics/SVG/1.1/DTD/svg11.dtd">
<!-- Creator: CorelDRAW 2019 (64-Bit) -->
<svg xmlns="http://www.w3.org/2000/svg" xml:space="preserve" width="55px" height="50px" version="1.1" style="shape-rendering:geometricPrecision; text-rendering:geometricPrecision; image-rendering:optimizeQuality; fill-rule:evenodd; clip-rule:evenodd"
viewBox="0 0 55 49.74"
 xmlns:xlink="http://www.w3.org/1999/xlink"
 xmlns:xodm="http://www.corel.com/coreldraw/odm/2003">
 <defs>
  <style type="text/css">
   <![CDATA[
    .fil0 {fill:white;fill-rule:nonzero}
   ]]>
  </style>
 </defs>
 <g id="Capa_x0020_1">
  <metadata id="CorelCorpID_0Corel-Layer"/>
  <path class="fil0" d="M29.74 49.41c1.1,-2.19 1.83,-4.74 3.11,-6.82 0.85,-1.39 2.83,-1.75 4.25,-2.27 0.31,-0.11 0.62,-0.47 0.47,-0.82 -0.64,-1.53 -1.27,-3.06 -1.91,-4.59 -0.14,-0.32 -0.46,-0.61 -0.83,-0.47 -5.91,2.11 -12.61,2.7 -18.68,0.84 -2.2,-0.67 -4.53,-1.72 -6.05,-3.52 -1.07,-1.28 -2.09,-3.21 -2.19,-4.9 -0.28,-4.55 3.16,-8.98 6.17,-12.01 4.04,-4.09 9.18,-7.2 14.81,-8.47 5.23,-1.19 12.07,-1.04 16.03,3.12 3.48,3.67 2.28,8.75 -0.41,12.48 -3.53,4.9 -9.55,7.87 -15.56,7.96 -2.6,0.04 -5.67,-0.46 -7.5,-2.5 -1.78,-1.99 -1.57,-4.68 -0.24,-6.84 1.85,-2.98 5.28,-4.98 8.62,-5.79 2.77,-0.67 8.3,-0.44 8.37,3.55 0.06,3.62 -5.01,6.1 -8.08,5.9 -2.18,-0.14 -3.99,-1.95 -2.24,-3.95 1.05,-1.22 5.13,-3.19 5.85,-0.68 0.18,0.61 0.9,0.61 1.23,0.17 0.73,-0.95 0.4,-1.86 -0.53,-2.62 -1.25,-1.03 -3.08,-1.02 -4.57,-0.65 -2.75,0.68 -6.61,3.33 -5.65,6.67 0.97,3.4 5.49,3.57 8.27,2.84 3.55,-0.93 7.48,-3.32 9.3,-6.6 1.47,-2.64 0.52,-5.38 -2.09,-6.82 -3.23,-1.77 -7.45,-1.62 -10.91,-0.76 -6.02,1.48 -14.86,7.03 -13.4,14.42 1.5,7.62 11.67,7.8 17.57,6.51 7.34,-1.62 15.89,-5.43 20.02,-12.04 3.27,-5.23 2.58,-12.22 -2.03,-16.42 -5.13,-4.67 -12.79,-4.95 -19.25,-3.68 -8.57,1.67 -17.02,5.95 -23.28,12.07 -4.9,4.79 -8.86,11.39 -8.37,18.48 0.08,1.19 0.34,2.3 0.61,3.45 2.2,6.1 8.35,8.5 14.38,9.07 1.84,0.17 3.7,0.19 5.55,0.09 1.37,-0.07 4.01,-0.96 5.04,0.06 1.37,1.37 2.2,3.6 2.88,5.38 0.19,0.5 0.95,0.73 1.24,0.16z"/>
 </g>
</svg>
